{
	"ByContractAddress": {
		"data": {
			"address": "0xdeb478251073157e400c3d8d2ed92a85c958f9fa",
			"decimals": 18,
			"deploymentHash": "3cedca4b9b80a36bd69378b64ef6f4fe21855706ae14c94a0f7cd45a3cb1170e",
			"name": "DARK20",
			"symbol": "DARK20",
			"totalSupply": "100000000000000000000000000"
		}
	},
	"ByWalletAddress": {
		"data": [
			{
				"address": "0x432b093d9542B905C87587607491C369408475b4",
				"balance": "100000000000000000000000000",
				"tokenAddress": "0xdeb478251073157e400c3d8d2ed92a85c958f9fa"
			}
		],
		"meta": {
			"totalCountIsEstimate": false
		}
	},
	"TokenHoldersList": {
		"meta": {
			"count": 1,
			"first": "/wallets/0x432b093d9542B905C87587607491C369408475b4/tokens?limit=100&page=1",
			"last": "/wallets/0x432b093d9542B905C87587607491C369408475b4/tokens?limit=100&page=1",
			"next": null,
			"pageCount": 1,
			"previous": null,
			"self": "/wallets/0x432b093d9542B905C87587607491C369408475b4/tokens?limit=100&page=1",
			"totalCount": 1,
			"totalCountIsEstimate": false
		},
		"results": [
			{
				"address": "0x432b093d9542B905C87587607491C369408475b4",
				"balance": "100000000000000000000000000",
				"tokenAddress": "0xdeb478251073157e400c3d8d2ed92a85c958f9fa"
			}
		]
	},
	"TokensList": {
		"data": [
			{
				"address": "0xdeb478251073157e400c3d8d2ed92a85c958f9fa",
				"decimals": 18,
				"deploymentHash": "3cedca4b9b80a36bd69378b64ef6f4fe21855706ae14c94a0f7cd45a3cb1170e",
				"name": "DARK20",
				"symbol": "DARK20",
				"totalSupply": "100000000000000000000000000"
			}
		],
		"meta": {
			"count": 1,
			"first": "/tokens?limit=100&page=1",
			"last": "/tokens?limit=100&page=1",
			"next": null,
			"pageCount": 1,
			"previous": null,
			"self": "/tokens?limit=100&page=1",
			"totalCount": 1,
			"totalCountIsEstimate": false
		}
	},
	"TokenTransfers": {
		"meta": {
			"totalCountIsEstimate": false,
			"count": 5,
			"first": "/tokens/transfers?from=0xA5cc0BfEB09742C5e4C610f2EBaaB82Eb142Ca10&from=0xA5cc0BfEB09742C5e4C610f2EBaaB82Eb142Ca11&limit=5&page=1",
			"last": "/tokens/transfers?from=0xA5cc0BfEB09742C5e4C610f2EBaaB82Eb142Ca10&from=0xA5cc0BfEB09742C5e4C610f2EBaaB82Eb142Ca11&limit=5&page=3",
			"next": "/tokens/transfers?from=0xA5cc0BfEB09742C5e4C610f2EBaaB82Eb142Ca10&from=0xA5cc0BfEB09742C5e4C610f2EBaaB82Eb142Ca11&limit=5&page=2",
			"pageCount": 3,
			"previous": null,
			"self": "/tokens/transfers?from=0xA5cc0BfEB09742C5e4C610f2EBaaB82Eb142Ca10&from=0xA5cc0BfEB09742C5e4C610f2EBaaB82Eb142Ca11&limit=5&page=1",
			"totalCount": 11
		},
		"data": [
			{
				"transactionHash": "bf060a019f9f5a036f571e2b5bc0227c6a5975ce763e790ed4e1dcf42b8f2d1d",
				"from": "0xA5cc0BfEB09742C5e4C610f2EBaaB82Eb142Ca10",
				"to": "0xE3c31e486ccA6Eb2093c0F4883Df949d45B021C5",
				"value": "5000000000000000000",
				"functionSig": "0xa9059cbb",
				"blockNumber": "22773025",
				"timestamp": "1769010139522",
				"token": {
					"address": "0x180a864a755fed0144c622df49b83db577befefb",
					"name": "DARK20",
					"symbol": "DARK20",
					"decimals": 18
				}
			},
			{
				"transactionHash": "1680b949c7bb79457e71bae44ceecc5f891ce2c4ee832d2ef60127d81f37ee6a",
				"from": "0xA5cc0BfEB09742C5e4C610f2EBaaB82Eb142Ca10",
				"to": "0xA5cc0BfEB09742C5e4C610f2EBaaB82Eb142Ca10",
				"value": "2000000000000000000",
				"functionSig": "0xa9059cbb",
				"blockNumber": "22770925",
				"timestamp": "1768987443135",
				"token": {
					"address": "0x180a864a755fed0144c622df49b83db577befefb",
					"name": "DARK20",
					"symbol": "DARK20",
					"decimals": 18
				}
			},
			{
				"transactionHash": "8b1b37b56a465dfd889ae3d860034265efec272052ed47d13929301b656a17ed",
				"from": "0xA5cc0BfEB09742C5e4C610f2EBaaB82Eb142Ca10",
				"to": "0xA5cc0BfEB09742C5e4C610f2EBaaB82Eb142Ca10",
				"value": "100378293000000000000",
				"functionSig": "0xa9059cbb",
				"blockNumber": "22765947",
				"timestamp": "1768933105190",
				"token": {
					"address": "0x180a864a755fed0144c622df49b83db577befefb",
					"name": "DARK20",
					"symbol": "DARK20",
					"decimals": 18
				}
			},
			{
				"transactionHash": "addf8eba048900b8bc47b883fd6dbbe32a9d330579e1dd1a174d22f6654ce910",
				"from": "0xA5cc0BfEB09742C5e4C610f2EBaaB82Eb142Ca10",
				"to": "0xA5cc0BfEB09742C5e4C610f2EBaaB82Eb142Ca10",
				"value": "10300000000000000000",
				"functionSig": "0xa9059cbb",
				"blockNumber": "22765920",
				"timestamp": "1768932791584",
				"token": {
					"address": "0x180a864a755fed0144c622df49b83db577befefb",
					"name": "DARK20",
					"symbol": "DARK20",
					"decimals": 18
				}
			},
			{
				"transactionHash": "8e08bc13da5b97a5334a46313d10ccbd154b829ec95b8d13cf3a6702ca3a0aac",
				"from": "0xA5cc0BfEB09742C5e4C610f2EBaaB82Eb142Ca10",
				"to": "0xA5cc0BfEB09742C5e4C610f2EBaaB82Eb142Ca10",
				"value": "1200000000000000000",
				"functionSig": "0xa9059cbb",
				"blockNumber": "22765861",
				"timestamp": "1768932141515",
				"token": {
					"address": "0x180a864a755fed0144c622df49b83db577befefb",
					"name": "DARK20",
					"symbol": "DARK20",
					"decimals": 18
				}
			}
		]
	}
}
