{
	"meta": {
		"totalCountIsEstimate": false,
		"count": 10,
		"pageCount": 526282,
		"totalCount": 5262819,
		"next": "/transactions?limit=10&transform=true&page=2",
		"previous": null,
		"self": "/transactions?limit=10&transform=true&page=1",
		"first": "/transactions?limit=10&transform=true&page=1",
		"last": "/transactions?limit=10&transform=true&page=526282"
	},
	"data": [
		{
			"id": "280543e38fbbaaadcd6f3d1963a438bb5fffbb2e1610ed7bc0408a5e72438521",
			"blockId": "473ba6ab75179808b34738a7c8f856cc9f23bc00c4952fad598c8293c3b1ed52",
			"version": 2,
			"type": 0,
			"typeGroup": 1,
			"amount": "79791128540",
			"fee": "4436624",
			"sender": "AaxYSdqmrpoFqAkWUPip9VSKUMPC2rZdPU",
			"senderPublicKey": "039838be5fd438a1ae34ffc175be8c3385c7be35e84a87fa761a4524a34a8328b5",
			"recipient": "AWHPZCQxkKiX4ERqEmo1t4iQiTnENCuxef",
			"signature": "9376b913d6f49d79cfbc88e42d9a62abe1892a54a06b86ad18ed12a108b62317901a10793c901ee2e8f08607625e790858ab6f0e648ec932e2abf785ad4d2d30",
			"confirmations": 22,
			"timestamp": {
				"epoch": 175480888,
				"unix": 1665582088,
				"human": "2022-10-12T13:41:28.000Z"
			},
			"nonce": "2"
		},
		{
			"id": "18abb38a405b60e7b5c5f37256026a02ecd8c2d3224ef408eacad30c729bad2f",
			"blockId": "481350fffcca3db81f6683792041bf5275c5b8850ab2bc1f64388b5171d465ec",
			"version": 2,
			"type": 6,
			"typeGroup": 1,
			"amount": "0",
			"fee": "5200000",
			"sender": "Ad2xT5ejGRcGBxyGsmiCbaEhvCHpMPdanh",
			"senderPublicKey": "028e03cdd1f4c17021d0af04fbf0fe24a315e5384abb224a29759540befd58daa1",
			"recipient": "Ad2xT5ejGRcGBxyGsmiCbaEhvCHpMPdanh",
			"signature": "d5af7cad10b176e447885d4c9819e5030869e10ff22f78b78d60e0d14eefd10b76fa3335250a17a8168a1460b03db82aa1b76a14410b2bd3848aeea8e254b5c2",
			"asset": {
				"payments": [
					{
						"amount": "10000000",
						"recipientId": "AUYM4dGcWVJmmpNt2dDY8k19WuPPX9oMCK"
					},
					{
						"amount": "10000000",
						"recipientId": "AQBsykAWXSTWe3bsbXSi9DA7C1DzCvv5Gu"
					},
					{
						"amount": "10000000",
						"recipientId": "AQVFjPMYZJ4JSzHfncSe3EHwSU5no1jYai"
					},
					{
						"amount": "10000000",
						"recipientId": "ANNFyjZF37vrEaKKjdA49XcDfVrGbPRftf"
					}
				]
			},
			"confirmations": 62,
			"timestamp": {
				"epoch": 175480568,
				"unix": 1665581768,
				"human": "2022-10-12T13:36:08.000Z"
			},
			"nonce": "34"
		},
		{
			"id": "1fed4f48b6ef6cce85ded316885ec1dbc1bd0a075130ac3304b750e30f28c11c",
			"blockId": "4ca8ad6978b8e6beca5a3eadd80d9eb087d3a0cd04b11cf31f0a714dd18ac9d1",
			"version": 2,
			"type": 0,
			"typeGroup": 1,
			"amount": "199743737549",
			"fee": "10000000",
			"sender": "AFrPtEmzu6wdVpa2CnRDEKGQQMWgq8nE9V",
			"senderPublicKey": "03933b36970c8d298ecaeb61e00215d9bed03f9f01cdd4523233c7297df7f71e37",
			"recipient": "AJfS3cdUVs998dposGheURcVxu1ccDSRJ9",
			"signature": "304402201f06db2201122dfd43d91debafa39d1604536815da08677708d6b65243596ad102203600170ff851382c3a6d4bcc628f4aa4a145689e28848ece5d5c1dfd232dce9a",
			"vendorField": "binance",
			"confirmations": 92,
			"timestamp": {
				"epoch": 175480328,
				"unix": 1665581528,
				"human": "2022-10-12T13:32:08.000Z"
			},
			"nonce": "111186"
		},
		{
			"id": "db4663742484f87d8d1effaa2046b55d47033dbdfafb77c4d46f15d7e32a65bb",
			"blockId": "ffbb1492bd42641db90cfc1274b2f3fbea9f276b8948c9d9244ce5a731a0c7a0",
			"version": 2,
			"type": 6,
			"typeGroup": 1,
			"amount": "0",
			"fee": "10000000",
			"sender": "ALuQkdsJQKypBA6XCzK84b5v5RpXrfgPYK",
			"senderPublicKey": "03c7219fa2d51bee35ce6ad232bb430d9760a2013549eb9365f6348f69ac3f7802",
			"recipient": "ALuQkdsJQKypBA6XCzK84b5v5RpXrfgPYK",
			"signature": "44a7c5fd2d0d5f422b9c7b666b82c12268f40445dc4c4eccaf38d70ae0538a5828c011e9b00fc860e66ebb4d38ba885843820f4192782c630087575ae06674cc",
			"signSignature": "e6b7213a287dba0cf97bcfb61e1977bee6ff714b476d464f3b095eabfc5e1e16b6b11d92772e4f8d2a49c0f8c2710bde9d59abcfbf8797546724015648bc483d",
			"vendorField": "Blues for Alice 85%",
			"asset": {
				"payments": [
					{
						"amount": "6519860926",
						"recipientId": "AP2gxgmYWreXijh2J8dzMGXrwRm1TWtrK8"
					},
					{
						"amount": "105500000",
						"recipientId": "AcEznLREgms7Trp8QjYPfZbNFyUexNTsoM"
					},
					{
						"amount": "105500000",
						"recipientId": "ANDNLDzb1GvQdEjtqVKuLJjhezn726RTmc"
					},
					{
						"amount": "6717703427",
						"recipientId": "AHn9vk5fviNuwZhEvdarJThvZyRsyFG1CY"
					},
					{
						"amount": "6309187171",
						"recipientId": "AZNouHo8uSZdPYZsYPpA2He9U6iQTAzEfZ"
					},
					{
						"amount": "2995907976",
						"recipientId": "AUphDV9KodjzMT8NDWSbNM4ZfV54rRxokb"
					},
					{
						"amount": "2968812622",
						"recipientId": "AUTPBeYZCFFUHmEio9D45gUmCASgsE6pro"
					},
					{
						"amount": "2814622051",
						"recipientId": "AMbDRwspyaFYzDpShBQqo8jjLYzyFvKWdd"
					},
					{
						"amount": "1746245706",
						"recipientId": "Aef1E55n8c2dCkZ6XiPrxFQkMWEqCapFDv"
					},
					{
						"amount": "1644681911",
						"recipientId": "AK8tB9a4ucmHsqFFQiB3ZjjWTovX8honUt"
					},
					{
						"amount": "1410146338",
						"recipientId": "AXQ5oknMeA3skTthnnQEqs3MdUPYh9WXdG"
					},
					{
						"amount": "1258770507",
						"recipientId": "AYK2SfYRE1LnEEntCz3Mf3HXnwimH3tppa"
					},
					{
						"amount": "1256437058",
						"recipientId": "ANxH6XNhE4RHgA7rcyyaiyxVVmAp4V9Lbm"
					},
					{
						"amount": "744776617",
						"recipientId": "AHhdQU3sD3TBxwB2foGVbzJE5ybLeecDjc"
					},
					{
						"amount": "728281692",
						"recipientId": "AeJdTmByFg5DBBqkybwgHhD9HrKskm5A5g"
					},
					{
						"amount": "724042280",
						"recipientId": "AWXWfDhF7uDNdYrNYCoWMjuXE5iFx5wFV3"
					},
					{
						"amount": "657953704",
						"recipientId": "ANa4GDx6iuvuB7DLJANieakgop53mYRA2v"
					},
					{
						"amount": "645046412",
						"recipientId": "AL8XPUiKJeWcpqho5FES5DAApvs9uavhWe"
					},
					{
						"amount": "645039027",
						"recipientId": "AGGgHw6weHq2CPM2wJkjb3ndh5yeiWC3uJ"
					},
					{
						"amount": "640737159",
						"recipientId": "AUrDgz1SPqd8QhPsmydydPHrg5weXjpmH6"
					},
					{
						"amount": "463915150",
						"recipientId": "Ae5vH6V3R2tfAF1Fw85qtwnaiJnLv5nwF2"
					},
					{
						"amount": "283329534",
						"recipientId": "AHVnB27ogEQyRBpHb4Dm5DHKWBhyZKmhfC"
					},
					{
						"amount": "269084924",
						"recipientId": "ATWGMMXDJtFYJZukFUp4TdQ3GdZ9Py97aS"
					},
					{
						"amount": "112892385",
						"recipientId": "AVSffjFJP3qtUEzGKx4AtpEebi83F1s5kD"
					},
					{
						"amount": "110873959",
						"recipientId": "AGw97uo5VgEp1sBGT2WAZLXne2BR4jMBh1"
					},
					{
						"amount": "89003387",
						"recipientId": "AKDZRUbGfHFcNu4JAcqLzVBTS5vE7SnXGd"
					},
					{
						"amount": "81325519",
						"recipientId": "AVMbnLKtSuCe4NA4K4EbaWmR8vrhNcqDWa"
					},
					{
						"amount": "80888749",
						"recipientId": "AQX8uEqrpyggzwAi2Sm6vSKdLUxVaGTu1H"
					},
					{
						"amount": "52446793",
						"recipientId": "ASZLBY2BDwvfecF9psBYGs8Npfk6Hy6r3r"
					},
					{
						"amount": "46749160",
						"recipientId": "Aaqy3pTUu1Rg1SXCpKcdBJqTz2zojA9cPT"
					},
					{
						"amount": "42968251",
						"recipientId": "Acfr52SN9UWx5UN7Bus82nFbiScVBCvWMV"
					},
					{
						"amount": "32463405",
						"recipientId": "APFHDeGrbsHPgfWarbnTUQaPSBX2NgngJk"
					},
					{
						"amount": "28880625",
						"recipientId": "AQ25G6mdGvfXEtmYoA8avrUQ91ECuvbSZX"
					},
					{
						"amount": "26756488",
						"recipientId": "AUXv7qpaguhWr1FW9Jk8zJgHABEGc9dfbk"
					},
					{
						"amount": "25252480",
						"recipientId": "ANykxeeTivCL74BZ9oMNMSErGy8XJZMgTu"
					},
					{
						"amount": "24153803",
						"recipientId": "AH3ejeXzWQJPgbTrQaXP1ogvFrWrhTVrE4"
					},
					{
						"amount": "20595077",
						"recipientId": "AJ8MBKte4pStNrQ22gX62PnjNaC9g22dTf"
					},
					{
						"amount": "17653948",
						"recipientId": "ATX8U6tPCGL24xGrvS6mFkoCSa4wi4BuSQ"
					},
					{
						"amount": "17165905",
						"recipientId": "AHetDw5UYbxk6yC3A6RJJLaJFhA9zKHPQG"
					},
					{
						"amount": "16647478",
						"recipientId": "ASVjxBe4ows1RTPTv3Ds8dJwmaY7H5fe5q"
					},
					{
						"amount": "15623917",
						"recipientId": "APuY6t48zsrd25m1SNmcg7hJBdZpeg2yQj"
					},
					{
						"amount": "15042612",
						"recipientId": "AQq6hSZHstgKDujnZZt1jsscneB1DUGyHy"
					},
					{
						"amount": "14636015",
						"recipientId": "AV1U38xEXbR824tQ9CaHqjjn2wrucJVsrZ"
					},
					{
						"amount": "14429024",
						"recipientId": "AdkhzUYnSzmMz7PbjmRpwGxaxqTfL4oway"
					},
					{
						"amount": "13449562",
						"recipientId": "AJNkFQApeP6XhhdEF3FMimMQH9dwvFv1WP"
					},
					{
						"amount": "13222315",
						"recipientId": "AMCf9zZjrEkpswaj4aFhThQrtdPBfTRYTd"
					},
					{
						"amount": "11790680",
						"recipientId": "ALJgox1kUnHfx9KpczCD4S4KQsNLDkVKYb"
					},
					{
						"amount": "11487684",
						"recipientId": "ASR7xyZPZpVhA7C9uE3F2UfwSRY1sovsFd"
					},
					{
						"amount": "11126030",
						"recipientId": "AbydANz7JSgUjTEeopzpLtqrC3CcFt1KBE"
					},
					{
						"amount": "10315368",
						"recipientId": "AcTZncfxp1MCPwkLszpGWMmvDHgKir4mdp"
					},
					{
						"amount": "10007335",
						"recipientId": "AXhqwFUEpVN6RGANWCpTqbDQ2C45qCzQRX"
					}
				]
			},
			"confirmations": 289,
			"timestamp": {
				"epoch": 175478752,
				"unix": 1665579952,
				"human": "2022-10-12T13:05:52.000Z"
			},
			"nonce": "3894"
		},
		{
			"id": "3be3879411c0f0692ed920418ad292fb305b5d74e2c39230e96f539cb07c27af",
			"blockId": "b819ec4e3713a0b4b8530d0786634868a0738bddfe7affaf7c9f335e6953f5ce",
			"version": 2,
			"type": 0,
			"typeGroup": 1,
			"amount": "50137455930",
			"fee": "10000000",
			"sender": "AXSY6UpSDsZjSJJwaBGq4fqjYRPHWqyX3a",
			"senderPublicKey": "02ff6fa39b52afc93e2b393097b5c74091c331fbdaebf76d9ae7000091ea91cc6b",
			"recipient": "AFrPtEmzu6wdVpa2CnRDEKGQQMWgq8nE9V",
			"signature": "304402201e9718704ccf200fbde27e0e97aea758ef6f0b70dc0c02b72d5305e75695fcd40220080fa6a22ad3c148a6ab0f95b416b82d84e59dcc1ced5d4d969e3bbf168b5655",
			"vendorField": "binance",
			"confirmations": 580,
			"timestamp": {
				"epoch": 175476424,
				"unix": 1665577624,
				"human": "2022-10-12T12:27:04.000Z"
			},
			"nonce": "610"
		},
		{
			"id": "132e76e30862a3fd9100300a78fb7ce075ecd1c303318c78107404789324a894",
			"blockId": "b819ec4e3713a0b4b8530d0786634868a0738bddfe7affaf7c9f335e6953f5ce",
			"version": 2,
			"type": 0,
			"typeGroup": 1,
			"amount": "246995520760",
			"fee": "10000000",
			"sender": "APXZggLDAVeDqRqb3EssKRXnWD8ZQNsxH8",
			"senderPublicKey": "02c98375f23718b81698a0981962f742985c13cdb68a06ca13a10be146f745ec69",
			"recipient": "AFrPtEmzu6wdVpa2CnRDEKGQQMWgq8nE9V",
			"signature": "3044022048c03474077cb9524193cf1f556abd9314ef9b3a13d3b2ed1bec30ad4ef2cf5202203103d447e63d129f98b3d480705074534699ca5ab134c10f0fabe8e46067e31d",
			"vendorField": "binance",
			"confirmations": 580,
			"timestamp": {
				"epoch": 175476424,
				"unix": 1665577624,
				"human": "2022-10-12T12:27:04.000Z"
			},
			"nonce": "1"
		},
		{
			"id": "6ad6430a9951bc841039a77df6d72eb97ba8916c02ceb4d2e1cf64057def5097",
			"blockId": "26e804605ef53698d5640f7c9a8aeb187b5595c369aa8ad7d78c349244f90cb8",
			"version": 2,
			"type": 0,
			"typeGroup": 1,
			"amount": "100014603",
			"fee": "816000",
			"sender": "AKATy581uXWrbm8B4DTQh4R9RbqaWRiKRY",
			"senderPublicKey": "0232b96d57ac27f9a99242bc886e433baa89f596d435153c9dae47222c0d1cecc3",
			"recipient": "ASzt2nKcoyFBq6wZAp7FNgvCx6WWCnHJ6U",
			"signature": "8136688a6156fc85462d114ef595eef6acfa446e5a229ffd00b4ae965f33ca62dd137942256ca488a904141a08eda6c7477ee4733e2082a012060a93e28c76b3",
			"signSignature": "87c0d265ea84294c51e545a570dbdce9c3701c415f8dafc3211186c848c0d66cfffb231c3efe072194f3ddce0b896c6d0f2f85c3dbe115a050b2aca769da40a5",
			"vendorField": "Payout from arkmoon",
			"confirmations": 586,
			"timestamp": {
				"epoch": 175476376,
				"unix": 1665577576,
				"human": "2022-10-12T12:26:16.000Z"
			},
			"nonce": "149214"
		},
		{
			"id": "84cfe6e47692d96033a5adce3758e329c29d391ce0b5f5df4123da2e50bbf77a",
			"blockId": "eade6c00e8decc231944a0f51533727d7a58be23514839403f73731cbe62016e",
			"version": 2,
			"type": 0,
			"typeGroup": 1,
			"amount": "247005520760",
			"fee": "10000000",
			"sender": "AReY3W6nTv3utiG2em5nefKEsGQeqEVPN4",
			"senderPublicKey": "03604e79d2ff8f95626be7c04ad96986b7e09d6ebc618063ecb7c95cb4c8f863e6",
			"recipient": "APXZggLDAVeDqRqb3EssKRXnWD8ZQNsxH8",
			"signature": "af6fc54cd7f20dbda012a705deba5352a9700254ced4f9521821be67ebaa097459ed16647322dac8faf1f61eaaa0dd6aab3d2751ae33791031755821cb3fc727",
			"confirmations": 606,
			"timestamp": {
				"epoch": 175476216,
				"unix": 1665577416,
				"human": "2022-10-12T12:23:36.000Z"
			},
			"nonce": "15618"
		},
		{
			"id": "22ac874bda7ffc2be31dddea278ad14eadaa340b20a841de181d09cadb980d9e",
			"blockId": "bc844d82cf4e6a333721f7506dacde3501fde5054424435ddfd9572263b56e22",
			"version": 2,
			"type": 0,
			"typeGroup": 1,
			"amount": "100015003",
			"fee": "816000",
			"sender": "AKATy581uXWrbm8B4DTQh4R9RbqaWRiKRY",
			"senderPublicKey": "0232b96d57ac27f9a99242bc886e433baa89f596d435153c9dae47222c0d1cecc3",
			"recipient": "ATpzxWWkCxLAhnx3jJebJddmJFTa3CXRFv",
			"signature": "59e4422623e0808ab80c3a96ba8010a7bb9df835f8f571091b4f2498a3f70218533bfc9c0eba310d82a27ccb56b825a8ffb21e5a7b64c47b2977d6f95b63554e",
			"signSignature": "0f99723b95652ff676c1bb898e4fa50cadd6ef1c5aca2b95ee9d331a7678c874ea2ea7a65086218d55d73e3612b91e2d3cc4a41173b6f9b3c77d42955c7e0acd",
			"vendorField": "Payout from arkmoon",
			"confirmations": 765,
			"timestamp": {
				"epoch": 175474944,
				"unix": 1665576144,
				"human": "2022-10-12T12:02:24.000Z"
			},
			"nonce": "149213"
		},
		{
			"id": "c1ac1159d212e98cb827c6bd2646332fc9247f2a93accb9672ffe10277b05f6a",
			"blockId": "e91ccf4540cb6c9c9b5f97cf9bade1f7e2438ebfa78e80ec789cf15bae9feb52",
			"version": 2,
			"type": 0,
			"typeGroup": 1,
			"amount": "19100000000",
			"fee": "700000",
			"sender": "AS9YYLkD1AbY1A9ADQfVSX2LCwYDKWtpZX",
			"senderPublicKey": "0259e22e1e354e38bf018e77c7a5dd5847888dd60647f9c75bafe9ff4d78df42d5",
			"recipient": "AXUzVWfmZQsy2hC58sKgCvcx4UqZtMxqjM",
			"signature": "cd4109536d4a7308abdf23e827f755f7745079b3836c077526dd110da355734d096bb2b02b71646b9fded5fe1645d71fc90e68093f017282636c8653589a0306",
			"signSignature": "9f41551814c5f4247254e6b3756e0c13aee40f78de8ef8e975f0ab51e9717e1ec7cf1cdf1fe0e5f910fb79a29059443d99189fb7ed45579cda2ac44d2c0e8b35",
			"confirmations": 900,
			"timestamp": {
				"epoch": 175473864,
				"unix": 1665575064,
				"human": "2022-10-12T11:44:24.000Z"
			},
			"nonce": "47"
		}
	]
}
