{
	"meta": {
		"totalCountIsEstimate": false,
		"count": 30,
		"first": "/transactions?limit=30&orderBy=timestamp%3Adesc&address=0xcd15953dD076e56Dc6a5bc46Da23308Ff3158EE6&fullReceipt=false&transform=true&page=1",
		"last": "/transactions?limit=30&orderBy=timestamp%3Adesc&address=0xcd15953dD076e56Dc6a5bc46Da23308Ff3158EE6&fullReceipt=false&transform=true&page=1",
		"next": "/transactions?limit=30&orderBy=timestamp%3Adesc&address=0xcd15953dD076e56Dc6a5bc46Da23308Ff3158EE6&fullReceipt=false&transform=true&page=2",
		"pageCount": 2,
		"previous": null,
		"self": "/transactions?limit=30&orderBy=timestamp%3Adesc&address=0xcd15953dD076e56Dc6a5bc46Da23308Ff3158EE6&fullReceipt=false&transform=true&page=1",
		"totalCount": 40
	},
	"data": [
		{
			"value": "2000000000000000000",
			"blockHash": "1e6789dd661ea8cd38ded6fe818eba181589497a2cc3179c42bb5695c33bcf50",
			"confirmations": 15,
			"data": "",
			"gas": "21000",
			"gasPrice": "5000000000",
			"hash": "2dc489ca6683b7c2bc380165204e3a291c66b0648dbc43a04e76b6d130e5cb5f",
			"nonce": "26",
			"to": "0xcd15953dD076e56Dc6a5bc46Da23308Ff3158EE6",
			"from": "0x93485b57ff3DeD81430D08579142fAe8234c6A17",
			"senderPublicKey": "031cfc56cf21bad0f66c5be6af951cdb32dd2a19db9d2be46adbb72f54c30c1370",
			"signature": "ca8fc4555eb3bc07d8f76cb5624575e281ce3cc300518ce3d0b2b8e0668ff8512f82021f7353833e34c14c17dbaf194bf83b6fe53923b805ad54509ce6753b1b1c",
			"signatures": null,
			"timestamp": 1741880196401,
			"receipt": {
				"gasRefunded": 0,
				"gasUsed": 21000,
				"success": true
			}
		},
		{
			"value": "0",
			"blockHash": "9c0704c45edc96de33450500a8b6328b7c10e6e1b70c65a9baa880726f0a13ee",
			"confirmations": 26,
			"data": "0x602a9eee00000000000000000000000000000000000000000000000000000000000000200000000000000000000000000000000000000000000000000000000000000030a4dc0d9080e2542b4e5347af8cebe6327d8814dabda373fbee570165661f2e39b100723009e0fad9da6f207de81cea1200000000000000000000000000000000",
			"gas": "500000",
			"gasPrice": "5080915911",
			"hash": "2c0e9cb5f377847502246b6b32d8c106ae1b389bbcfd27cc85de6a744b9d4364",
			"nonce": "7",
			"to": "0x535B3D7A252fa034Ed71F0C53ec0C6F784cB64E1",
			"from": "0xcd15953dD076e56Dc6a5bc46Da23308Ff3158EE6",
			"senderPublicKey": "021adbf4453accaefea33687c672fd690702246ef397363421585f134a1e68c175",
			"signature": "800de07fbacfd98414f5abf179910f18de7456d154c8905163bc558051873eb02fd5367e281a6e1c036f4466ba1ea93dd773760e75399b10ad5fd01d075f85c81b",
			"signatures": null,
			"timestamp": 1741880108401,
			"receipt": {
				"gasRefunded": 0,
				"gasUsed": 181117,
				"success": true
			}
		},
		{
			"value": "0",
			"blockHash": "c12377a1c7ada3ab869331e13efbbe8121fc049bb9f165edcbbc2ed97734ae5d",
			"confirmations": 33,
			"data": "0x36a94134000000000000000000000000000000000000000000000000000000000000002000000000000000000000000000000000000000000000000000000000000000127661756c745f746573745f616464726573730000000000000000000000000000",
			"gas": "200000",
			"gasPrice": "5000000000",
			"hash": "11701c71669f2b845492f4a95e3bde60fd5fa9ee797f2f56f12820bce39d2e22",
			"nonce": "6",
			"to": "0x2c1DE3b4Dbb4aDebEbB5dcECAe825bE2a9fc6eb6",
			"from": "0xcd15953dD076e56Dc6a5bc46Da23308Ff3158EE6",
			"senderPublicKey": "021adbf4453accaefea33687c672fd690702246ef397363421585f134a1e68c175",
			"signature": "746b7e050828763c97185c1840fb79ff609f7de72b4a299cc186c79ab4bd8f0c00a76ed6571bab4b7c4c7baa3bbf5b684e968142bc24ecfe4311c43ed9943a181c",
			"signatures": null,
			"timestamp": 1741880052401,
			"receipt": {
				"gasRefunded": 0,
				"gasUsed": 87297,
				"success": true
			}
		},
		{
			"value": "0",
			"blockHash": "4481b6e4a3ca7bbb2c383e09c4555a139db2c19648247ba5c406f9be6a9e33e2",
			"confirmations": 39,
			"data": "0xebed6dab",
			"gas": "200000",
			"gasPrice": "5000000000",
			"hash": "1e6860facc12f6e70ba1d8af193642590aa17326b410f2b8f60dc1d2cccc4b30",
			"nonce": "5",
			"to": "0x2c1DE3b4Dbb4aDebEbB5dcECAe825bE2a9fc6eb6",
			"from": "0xcd15953dD076e56Dc6a5bc46Da23308Ff3158EE6",
			"senderPublicKey": "021adbf4453accaefea33687c672fd690702246ef397363421585f134a1e68c175",
			"signature": "9b2c5258d56d6d75e9e2d6cc0862a712649eadd6ec838652319787114045c6a57b7d417ee7064e106368efe9a01a140bea743b71566fa335a3d6051135a6a7ca1c",
			"signatures": null,
			"timestamp": 1741880004401,
			"receipt": {
				"gasRefunded": 8007,
				"gasUsed": 32032,
				"success": true
			}
		},
		{
			"value": "0",
			"blockHash": "bec87db41871f8004ab8e7baa31ab1c84599f917636a99ea20d0727807ee44f1",
			"confirmations": 44,
			"data": "0x36a941340000000000000000000000000000000000000000000000000000000000000020000000000000000000000000000000000000000000000000000000000000000b7661756c745f7465737431000000000000000000000000000000000000000000",
			"gas": "200000",
			"gasPrice": "5000000000",
			"hash": "e9ba7e89a5bd094fc0ccee3fdf5c12bac8e011d5e5915cdddaf2b37e4bb01e2e",
			"nonce": "4",
			"to": "0x2c1DE3b4Dbb4aDebEbB5dcECAe825bE2a9fc6eb6",
			"from": "0xcd15953dD076e56Dc6a5bc46Da23308Ff3158EE6",
			"senderPublicKey": "021adbf4453accaefea33687c672fd690702246ef397363421585f134a1e68c175",
			"signature": "235d85f2997f940c60372dc46e40fd171d68b5e3d1593398a9c472ea2576baf04cc8213ba1b89bb9b9e40e8f093ddffd88b380f509f851cc8366c1c0b06a3d3c1b",
			"signatures": null,
			"timestamp": 1741879964401,
			"receipt": {
				"gasRefunded": 0,
				"gasUsed": 82725,
				"success": true
			}
		},
		{
			"value": "0",
			"blockHash": "ca4bd2f7d0d3d7bc6f1403c25d2f8cabe9a3e6a4e2cdd43b936162f304f68f32",
			"confirmations": 49,
			"data": "0x6dd7d8ea0000000000000000000000001bf9cf8a006a5279ca81ea9d3f6ac2d41e1353e2",
			"gas": "200000",
			"gasPrice": "5000000000",
			"hash": "f40aa73e55716cb8d8ef889132250d6f155fbb94fa7991a55739ffe58ea68fb2",
			"nonce": "3",
			"to": "0x535B3D7A252fa034Ed71F0C53ec0C6F784cB64E1",
			"from": "0xcd15953dD076e56Dc6a5bc46Da23308Ff3158EE6",
			"senderPublicKey": "021adbf4453accaefea33687c672fd690702246ef397363421585f134a1e68c175",
			"signature": "f41479966debe91fd0144e8489b5473919d8424f57d96c0164226faa5090ce732c6806d6d9348a0bfebca2763099b2701e6984b644369269c45989a63c881d3d1b",
			"signatures": null,
			"timestamp": 1741879924401,
			"receipt": {
				"gasRefunded": 11200,
				"gasUsed": 82830,
				"success": true
			}
		},
		{
			"value": "0",
			"blockHash": "bc1f787ee8c76be4676eeede5a6afb272a574a1eb8cc45b28691b64c669e89fa",
			"confirmations": 54,
			"data": "0x6dd7d8ea0000000000000000000000003f8ecbf08078f22038235f9834540a960e99085b",
			"gas": "200000",
			"gasPrice": "5000000000",
			"hash": "45117603947dc51f6465eed3690b0937b2c1ce4d8826160e508e6b4489cf880e",
			"nonce": "2",
			"to": "0x535B3D7A252fa034Ed71F0C53ec0C6F784cB64E1",
			"from": "0xcd15953dD076e56Dc6a5bc46Da23308Ff3158EE6",
			"senderPublicKey": "021adbf4453accaefea33687c672fd690702246ef397363421585f134a1e68c175",
			"signature": "7d8fec054a2007df271e8370d8104bd4e1ffd11b6346615194e5a543fe4fba4544125418c301517c07bcb6ace59db23212f20f6b5d0ead4c1159f09953d479ad1b",
			"signatures": null,
			"timestamp": 1741879884401,
			"receipt": {
				"gasRefunded": 0,
				"gasUsed": 149433,
				"success": true
			}
		},
		{
			"value": "200000000000000000",
			"blockHash": "690d7ffa22199e2ce927fc56bdf8607095551381896de3ff884ccad34b70be58",
			"confirmations": 59,
			"data": "",
			"gas": "21000",
			"gasPrice": "5000000000",
			"hash": "d1dc3f92abd9f25d3bea7927cc28664e091394690bd5b600eb774050da0450c5",
			"nonce": "1",
			"to": "0x93485b57ff3DeD81430D08579142fAe8234c6A17",
			"from": "0xcd15953dD076e56Dc6a5bc46Da23308Ff3158EE6",
			"senderPublicKey": "021adbf4453accaefea33687c672fd690702246ef397363421585f134a1e68c175",
			"signature": "c3445926bf1d0f530a537a22073a64c1d34d4a2323eac6abb04469d5167d87be704faf5a07990193d7e6507119067d11a56208d2892397a02d070b85ea411b791c",
			"signatures": null,
			"timestamp": 1741879844401,
			"receipt": {
				"gasRefunded": 0,
				"gasUsed": 21000,
				"success": true
			}
		},
		{
			"value": "1500000000000000000",
			"blockHash": "45dfd6720f806bc67793bf26f3e8562d91e0d3b7705187df594867328a383c2b",
			"confirmations": 63,
			"data": "0x084ce708000000000000000000000000000000000000000000000000000000000000004000000000000000000000000000000000000000000000000000000000000000a0000000000000000000000000000000000000000000000000000000000000000200000000000000000000000093485b57ff3ded81430d08579142fae8234c6a17000000000000000000000000feaf2f24ba1205e9255d015dfad8463c70d9a46600000000000000000000000000000000000000000000000000000000000000020000000000000000000000000000000000000000000000000de0b6b3a764000000000000000000000000000000000000000000000000000006f05b59d3b20000",
			"gas": "200000",
			"gasPrice": "5142630532",
			"hash": "8f26a1983e22e87054244d65ac675dde891ef0bd2454768209fbbfe5ad95cacc",
			"nonce": "0",
			"to": "0x00EFd0D4639191C49908A7BddbB9A11A994A8527",
			"from": "0xcd15953dD076e56Dc6a5bc46Da23308Ff3158EE6",
			"senderPublicKey": "021adbf4453accaefea33687c672fd690702246ef397363421585f134a1e68c175",
			"signature": "8a3db88e4f849451457a3d549b4d438b07bf03f63cc87082840d51c9bead28db54816eade193a34091e78eae13dd78468e909e9f243b91f5a0db57d6858ccfba1c",
			"signatures": null,
			"timestamp": 1741879812401,
			"receipt": {
				"gasRefunded": 0,
				"gasUsed": 52629,
				"success": true
			}
		},
		{
			"value": "4980000000000000000",
			"blockHash": "bbe10cb07743e41a9ac3b6c7801a31ca00ce1c250d79b9ec3b885289e3c66a68",
			"confirmations": 124,
			"data": "",
			"gas": "21000",
			"gasPrice": "5135045370",
			"hash": "11051f5fdeb68d8d3692d87ad1e53435f88a197407b615cee348c1bf0a1628f8",
			"nonce": "0",
			"to": "0xcd15953dD076e56Dc6a5bc46Da23308Ff3158EE6",
			"from": "0x659A76be283644AEc2003aa8ba26485047fd1BFB",
			"senderPublicKey": "0311b11b0dea8851d49af7c673d7032e37ee12307f9bbd379b64bbdac6ca302e84",
			"signature": "0cb2c0d8d73d4ca9d2be751d2db97beb774c81c30ad5de344fe45d925cf1cd4105c6450da06e4e2c1d8170cc7bdbe8bd750b3144c240580a006b45aaabc6642d1c",
			"signatures": null,
			"timestamp": 1741879324401,
			"receipt": {
				"gasRefunded": 0,
				"gasUsed": 21000,
				"success": true
			}
		},
		{
			"value": "4980000000000000000",
			"blockHash": "bbe10cb07743e41a9ac3b6c7801a31ca00ce1c250d79b9ec3b885289e3c66a69",
			"confirmations": 124,
			"data": "",
			"gas": "21000",
			"gasPrice": "5135045370",
			"hash": "11051f5fdeb68d8d3692d87ad1e53435f88a197407b615cee348c1bf0a1628f9",
			"nonce": "0",
			"to": "0xcd15953dD076e56Dc6a5bc46Da23308Ff3158EE6",
			"from": "0x659A76be283644AEc2003aa8ba26485047fd1BFB",
			"senderPublicKey": "0311b11b0dea8851d49af7c673d7032e37ee12307f9bbd379b64bbdac6ca302e84",
			"signature": "0cb2c0d8d73d4ca9d2be751d2db97beb774c81c30ad5de344fe45d925cf1cd4105c6450da06e4e2c1d8170cc7bdbe8bd750b3144c240580a006b45aaabc6642d1c",
			"signatures": null,
			"timestamp": 1741879324401,
			"receipt": {
				"gasRefunded": 0,
				"gasUsed": 21000,
				"success": true
			}
		},
		{
			"value": "4980000000000000000",
			"blockHash": "bae10cb07743e41a9ac3b6c7801a31ca00ce1c250d79b9ec3b885289e3c66a69",
			"confirmations": 124,
			"data": "",
			"gas": "21000",
			"gasPrice": "5135045370",
			"hash": "21051f5fdeb68d8d3692d87ad1e53435f88a197407b615cee348c1bf0a1628f9",
			"nonce": "0",
			"to": "0xcd15953dD076e56Dc6a5bc46Da23308Ff3158EE6",
			"from": "0x659A76be283644AEc2003aa8ba26485047fd1BFB",
			"senderPublicKey": "0311b11b0dea8851d49af7c673d7032e37ee12307f9bbd379b64bbdac6ca302e84",
			"signature": "0cb2c0d8d73d4ca9d2be751d2db97beb774c81c30ad5de344fe45d925cf1cd4105c6450da06e4e2c1d8170cc7bdbe8bd750b3144c240580a006b45aaabc6642d1c",
			"signatures": null,
			"timestamp": 1741879324401,
			"receipt": {
				"gasRefunded": 0,
				"gasUsed": 21000,
				"success": true
			}
		},
		{
			"value": "4980000000000000000",
			"blockHash": "bbe10cb07743e41a9ac3b6c7801a31ca00ce1c250d79b9ec3b885289e3c66a69",
			"confirmations": 124,
			"data": "",
			"gas": "21000",
			"gasPrice": "5135045370",
			"hash": "31051f5fdeb68d8d3692d87ad1e53435f88a197407b615cee348c1bf0a1628f9",
			"nonce": "0",
			"to": "0xcd15953dD076e56Dc6a5bc46Da23308Ff3158EE6",
			"from": "0x659A76be283644AEc2003aa8ba26485047fd1BFB",
			"senderPublicKey": "0311b11b0dea8851d49af7c673d7032e37ee12307f9bbd379b64bbdac6ca302e84",
			"signature": "0cb2c0d8d73d4ca9d2be751d2db97beb774c81c30ad5de344fe45d925cf1cd4105c6450da06e4e2c1d8170cc7bdbe8bd750b3144c240580a006b45aaabc6642d1c",
			"signatures": null,
			"timestamp": 1741879324401,
			"receipt": {
				"gasRefunded": 0,
				"gasUsed": 21000,
				"success": true
			}
		},
		{
			"value": "4980000000000000000",
			"blockHash": "bce10cb07743e41a9ac3b6c7801a31ca00ce1c250d79b9ec3b885289e3c66a69",
			"confirmations": 124,
			"data": "",
			"gas": "21000",
			"gasPrice": "5135045370",
			"hash": "41051f5fdeb68d8d3692d87ad1e53435f88a197407b615cee348c1bf0a1628f9",
			"nonce": "0",
			"to": "0xcd15953dD076e56Dc6a5bc46Da23308Ff3158EE6",
			"from": "0x659A76be283644AEc2003aa8ba26485047fd1BFB",
			"senderPublicKey": "0311b11b0dea8851d49af7c673d7032e37ee12307f9bbd379b64bbdac6ca302e84",
			"signature": "0cb2c0d8d73d4ca9d2be751d2db97beb774c81c30ad5de344fe45d925cf1cd4105c6450da06e4e2c1d8170cc7bdbe8bd750b3144c240580a006b45aaabc6642d1c",
			"signatures": null,
			"timestamp": 1741879324401,
			"receipt": {
				"gasRefunded": 0,
				"gasUsed": 21000,
				"success": true
			}
		},
		{
			"value": "4880000000000000000",
			"blockHash": "ace10cb07743e41a9ac3b6c7801a31ca00ce1c250d79b9ec3b885289e3c66a69",
			"confirmations": 124,
			"data": "",
			"gas": "21000",
			"gasPrice": "5135045370",
			"hash": "51051f5fdeb68d8d3692d87ad1e53435f88a197407b615cee348c1bf0a1628f9",
			"nonce": "0",
			"to": "0xcd15953dD076e56Dc6a5bc46Da23308Ff3158EE6",
			"from": "0x659A76be283644AEc2003aa8ba26485047fd1BFB",
			"senderPublicKey": "0311b11b0dea8851d49af7c673d7032e37ee12307f9bbd379b64bbdac6ca302e84",
			"signature": "0cb2c0d8d73d4ca9d2be751d2db97beb774c81c30ad5de344fe45d925cf1cd4105c6450da06e4e2c1d8170cc7bdbe8bd750b3144c240580a006b45aaabc6642d1c",
			"signatures": null,
			"timestamp": 1741879324401,
			"receipt": {
				"gasRefunded": 0,
				"gasUsed": 21000,
				"success": true
			}
		},
		{
			"value": "4880000000000000000",
			"blockHash": "ace20cb07743e41a9ac3b6c7801a31ca00ce1c250d79b9ec3b885289e3c66a69",
			"confirmations": 124,
			"data": "",
			"gas": "21000",
			"gasPrice": "5135045370",
			"hash": "61051f5fdeb68d8d3692d87ad1e53435f88a197407b615cee348c1bf0a1628f9",
			"nonce": "0",
			"to": "0xcd15953dD076e56Dc6a5bc46Da23308Ff3158EE6",
			"from": "0x659A76be283644AEc2003aa8ba26485047fd1BFB",
			"senderPublicKey": "0311b11b0dea8851d49af7c673d7032e37ee12307f9bbd379b64bbdac6ca302e84",
			"signature": "0cb2c0d8d73d4ca9d2be751d2db97beb774c81c30ad5de344fe45d925cf1cd4105c6450da06e4e2c1d8170cc7bdbe8bd750b3144c240580a006b45aaabc6642d1c",
			"signatures": null,
			"timestamp": 1741879324401,
			"receipt": {
				"gasRefunded": 0,
				"gasUsed": 21000,
				"success": true
			}
		},
		{
			"value": "5880000000000000000",
			"blockHash": "ace30cb07743e41a9ac3b6c7801a31ca00ce1c250d79b9ec3b885289e3c66a69",
			"confirmations": 124,
			"data": "",
			"gas": "21000",
			"gasPrice": "5135045370",
			"hash": "62051f5fdeb68d8d3692d87ad1e53435f88a197407b615cee348c1bf0a1628f9",
			"nonce": "0",
			"to": "0xcd15953dD076e56Dc6a5bc46Da23308Ff3158EE6",
			"from": "0x659A76be283644AEc2003aa8ba26485047fd1BFB",
			"senderPublicKey": "0311b11b0dea8851d49af7c673d7032e37ee12307f9bbd379b64bbdac6ca302e84",
			"signature": "0cb2c0d8d73d4ca9d2be751d2db97beb774c81c30ad5de344fe45d925cf1cd4105c6450da06e4e2c1d8170cc7bdbe8bd750b3144c240580a006b45aaabc6642d1c",
			"signatures": null,
			"timestamp": 1741879324401,
			"receipt": {
				"gasRefunded": 0,
				"gasUsed": 21000,
				"success": true
			}
		},
		{
			"value": "5880000000000000000",
			"blockHash": "ace31cb07743e41a9ac3b6c7801a31ca00ce1c250d79b9ec3b885289e3c66a69",
			"confirmations": 124,
			"data": "",
			"gas": "21000",
			"gasPrice": "5135045370",
			"hash": "62151f5fdeb68d8d3692d87ad1e53435f88a197407b615cee348c1bf0a1628f9",
			"nonce": "0",
			"to": "0xcd15953dD076e56Dc6a5bc46Da23308Ff3158EE6",
			"from": "0x659A76be283644AEc2003aa8ba26485047fd1BFB",
			"senderPublicKey": "0311b11b0dea8851d49af7c673d7032e37ee12307f9bbd379b64bbdac6ca302e84",
			"signature": "0cb2c0d8d73d4ca9d2be751d2db97beb774c81c30ad5de344fe45d925cf1cd4105c6450da06e4e2c1d8170cc7bdbe8bd750b3144c240580a006b45aaabc6642d1c",
			"signatures": null,
			"timestamp": 1741879324401,
			"receipt": {
				"gasRefunded": 0,
				"gasUsed": 21000,
				"success": true
			}
		},
		{
			"value": "5880000000000000000",
			"blockHash": "ace32cb07743e41a9ac3b6c7801a31ca00ce1c250d79b9ec3b885289e3c66a69",
			"confirmations": 124,
			"data": "",
			"gas": "21000",
			"gasPrice": "5135045370",
			"hash": "62251f5fdeb68d8d3692d87ad1e53435f88a197407b615cee348c1bf0a1628f9",
			"nonce": "0",
			"to": "0xcd15953dD076e56Dc6a5bc46Da23308Ff3158EE6",
			"from": "0x659A76be283644AEc2003aa8ba26485047fd1BFB",
			"senderPublicKey": "0311b11b0dea8851d49af7c673d7032e37ee12307f9bbd379b64bbdac6ca302e84",
			"signature": "0cb2c0d8d73d4ca9d2be751d2db97beb774c81c30ad5de344fe45d925cf1cd4105c6450da06e4e2c1d8170cc7bdbe8bd750b3144c240580a006b45aaabc6642d1c",
			"signatures": null,
			"timestamp": 1741879324401,
			"receipt": {
				"gasRefunded": 0,
				"gasUsed": 21000,
				"success": true
			}
		},
		{
			"value": "5880000000000000000",
			"blockHash": "ace33cb07743e41a9ac3b6c7801a31ca00ce1c250d79b9ec3b885289e3c66a69",
			"confirmations": 124,
			"data": "",
			"gas": "21000",
			"gasPrice": "5135045370",
			"hash": "62252f5fdeb68d8d3692d87ad1e53435f88a197407b615cee348c1bf0a1628f9",
			"nonce": "0",
			"to": "0xcd15953dD076e56Dc6a5bc46Da23308Ff3158EE6",
			"from": "0x659A76be283644AEc2003aa8ba26485047fd1BFB",
			"senderPublicKey": "0311b11b0dea8851d49af7c673d7032e37ee12307f9bbd379b64bbdac6ca302e84",
			"signature": "0cb2c0d8d73d4ca9d2be751d2db97beb774c81c30ad5de344fe45d925cf1cd4105c6450da06e4e2c1d8170cc7bdbe8bd750b3144c240580a006b45aaabc6642d1c",
			"signatures": null,
			"timestamp": 1741879324401,
			"receipt": {
				"gasRefunded": 0,
				"gasUsed": 21000,
				"success": true
			}
		},
		{
			"value": "5880000000000000000",
			"blockHash": "ace33cb08743e41a9ac3b6c7801a31ca00ce1c250d79b9ec3b885289e3c66a69",
			"confirmations": 124,
			"data": "",
			"gas": "21000",
			"gasPrice": "5135045370",
			"hash": "62252f5fdeb69d8d3692d87ad1e53435f88a197407b615cee348c1bf0a1628f9",
			"nonce": "0",
			"to": "0xcd15953dD076e56Dc6a5bc46Da23308Ff3158EE6",
			"from": "0x659A76be283644AEc2003aa8ba26485047fd1BFB",
			"senderPublicKey": "0311b11b0dea8851d49af7c673d7032e37ee12307f9bbd379b64bbdac6ca302e84",
			"signature": "0cb2c0d8d73d4ca9d2be751d2db97beb774c81c30ad5de344fe45d925cf1cd4105c6450da06e4e2c1d8170cc7bdbe8bd750b3144c240580a006b45aaabc6642d1c",
			"signatures": null,
			"timestamp": 1741879324401,
			"receipt": {
				"gasRefunded": 0,
				"gasUsed": 21000,
				"success": true
			}
		},
		{
			"value": "5880000000000000000",
			"blockHash": "ace33cb08743e41a9ac3b6c7801a31ca00ce1c250d79b9ec3b885289e3c66a69",
			"confirmations": 124,
			"data": "",
			"gas": "21000",
			"gasPrice": "5135045370",
			"hash": "62252f5fdeb69d8d3692d87ad1e53435f88a197407b615cee348c1bf0a1628f9",
			"nonce": "0",
			"to": "0xcd15953dD076e56Dc6a5bc46Da23308Ff3158EE6",
			"from": "0x659A76be283644AEc2003aa8ba26485047fd1BFB",
			"senderPublicKey": "0311b11b0dea8851d49af7c673d7032e37ee12307f9bbd379b64bbdac6ca302e84",
			"signature": "0cb2c0d8d73d4ca9d2be751d2db97beb774c81c30ad5de344fe45d925cf1cd4105c6450da06e4e2c1d8170cc7bdbe8bd750b3144c240580a006b45aaabc6642d1c",
			"signatures": null,
			"timestamp": 1741879324401,
			"receipt": {
				"gasRefunded": 0,
				"gasUsed": 21000,
				"success": true
			}
		},
		{
			"value": "5880000000000000000",
			"blockHash": "ace33cb08743e41a9ac3b6c7801a31ca00ce1c250d78b9ec3b885289e3c66a69",
			"confirmations": 124,
			"data": "",
			"gas": "21000",
			"gasPrice": "5135045370",
			"hash": "62252f5fdeb69d8d3692d87ad1e53435f88a197407b625cee348c1bf0a1628f9",
			"nonce": "0",
			"to": "0xcd15953dD076e56Dc6a5bc46Da23308Ff3158EE6",
			"from": "0x659A76be283644AEc2003aa8ba26485047fd1BFB",
			"senderPublicKey": "0311b11b0dea8851d49af7c673d7032e37ee12307f9bbd379b64bbdac6ca302e84",
			"signature": "0cb2c0d8d73d4ca9d2be751d2db97beb774c81c30ad5de344fe45d925cf1cd4105c6450da06e4e2c1d8170cc7bdbe8bd750b3144c240580a006b45aaabc6642d1c",
			"signatures": null,
			"timestamp": 1741879324401,
			"receipt": {
				"gasRefunded": 0,
				"gasUsed": 21000,
				"success": true
			}
		},
		{
			"value": "5880000000000000000",
			"blockHash": "ace33cb08743e41a9ac3b6c7801a31ca00ce2c250d79b9ec3b885289e3c66a69",
			"confirmations": 124,
			"data": "",
			"gas": "21000",
			"gasPrice": "5135045370",
			"hash": "62252f5fdeb69d8d3692d87ad1e53435f89a197407b615cee348c1bf0a1628f9",
			"nonce": "0",
			"to": "0xcd15953dD076e56Dc6a5bc46Da23308Ff3158EE6",
			"from": "0x659A76be283644AEc2003aa8ba26485047fd1BFB",
			"senderPublicKey": "0311b11b0dea8851d49af7c673d7032e37ee12307f9bbd379b64bbdac6ca302e84",
			"signature": "0cb2c0d8d73d4ca9d2be751d2db97beb774c81c30ad5de344fe45d925cf1cd4105c6450da06e4e2c1d8170cc7bdbe8bd750b3144c240580a006b45aaabc6642d1c",
			"signatures": null,
			"timestamp": 1741879324401,
			"receipt": {
				"gasRefunded": 0,
				"gasUsed": 21000,
				"success": true
			}
		},
		{
			"value": "5880000000000000000",
			"blockHash": "ace33cb08743e41a9ac3b6c7800a31ca00ce1c250d79b9ec3b885289e3c66a69",
			"confirmations": 124,
			"data": "",
			"gas": "21000",
			"gasPrice": "5135045370",
			"hash": "62252f5fdeb69d8d3692d87ad2e53435f88a197407b615cee348c1bf0a1628f9",
			"nonce": "0",
			"to": "0xcd15953dD076e56Dc6a5bc46Da23308Ff3158EE6",
			"from": "0x659A76be283644AEc2003aa8ba26485047fd1BFB",
			"senderPublicKey": "0311b11b0dea8851d49af7c673d7032e37ee12307f9bbd379b64bbdac6ca302e84",
			"signature": "0cb2c0d8d73d4ca9d2be751d2db97beb774c81c30ad5de344fe45d925cf1cd4105c6450da06e4e2c1d8170cc7bdbe8bd750b3144c240580a006b45aaabc6642d1c",
			"signatures": null,
			"timestamp": 1741879324401,
			"receipt": {
				"gasRefunded": 0,
				"gasUsed": 21000,
				"success": true
			}
		},
		{
			"value": "5880000000000000000",
			"blockHash": "ace33cb08743e41a0ac3b6c7801a31ca00ce1c250d79b9ec3b885289e3c66a69",
			"confirmations": 124,
			"data": "",
			"gas": "21000",
			"gasPrice": "5135045370",
			"hash": "62252f5fdeb69d8d3692d17ad1e53435f88a197407b615cee348c1bf0a1628f9",
			"nonce": "0",
			"to": "0xcd15953dD076e56Dc6a5bc46Da23308Ff3158EE6",
			"from": "0x659A76be283644AEc2003aa8ba26485047fd1BFB",
			"senderPublicKey": "0311b11b0dea8851d49af7c673d7032e37ee12307f9bbd379b64bbdac6ca302e84",
			"signature": "0cb2c0d8d73d4ca9d2be751d2db97beb774c81c30ad5de344fe45d925cf1cd4105c6450da06e4e2c1d8170cc7bdbe8bd750b3144c240580a006b45aaabc6642d1c",
			"signatures": null,
			"timestamp": 1741879324401,
			"receipt": {
				"gasRefunded": 0,
				"gasUsed": 21000,
				"success": true
			}
		},
		{
			"value": "5880000000000000000",
			"blockHash": "ace33cb08743e42a9ac3b6c7801a31ca00ce1c250d79b9ec3b885289e3c66a69",
			"confirmations": 124,
			"data": "",
			"gas": "21000",
			"gasPrice": "5135045370",
			"hash": "62252f5fdeb69d8d3693d87ad1e53435f88a197407b615cee348c1bf0a1628f9",
			"nonce": "0",
			"to": "0xcd15953dD076e56Dc6a5bc46Da23308Ff3158EE6",
			"from": "0x659A76be283644AEc2003aa8ba26485047fd1BFB",
			"senderPublicKey": "0311b11b0dea8851d49af7c673d7032e37ee12307f9bbd379b64bbdac6ca302e84",
			"signature": "0cb2c0d8d73d4ca9d2be751d2db97beb774c81c30ad5de344fe45d925cf1cd4105c6450da06e4e2c1d8170cc7bdbe8bd750b3144c240580a006b45aaabc6642d1c",
			"signatures": null,
			"timestamp": 1741879324401,
			"receipt": {
				"gasRefunded": 0,
				"gasUsed": 21000,
				"success": true
			}
		},
		{
			"value": "5880000000000000000",
			"blockHash": "ace33cb08743e42a9ac3b6c7801a31ca00ce1c250d79b9ec3b885289e3c66a09",
			"confirmations": 124,
			"data": "",
			"gas": "21000",
			"gasPrice": "5135045370",
			"hash": "62252f5fdeb69d8d3693d87ad1e53435f88a197407b615cee348c1bf0a1628f0",
			"nonce": "0",
			"to": "0xcd15953dD076e56Dc6a5bc46Da23308Ff3158EE6",
			"from": "0x659A76be283644AEc2003aa8ba26485047fd1BFB",
			"senderPublicKey": "0311b11b0dea8851d49af7c673d7032e37ee12307f9bbd379b64bbdac6ca302e84",
			"signature": "0cb2c0d8d73d4ca9d2be751d2db97beb774c81c30ad5de344fe45d925cf1cd4105c6450da06e4e2c1d8170cc7bdbe8bd750b3144c240580a006b45aaabc6642d1c",
			"signatures": null,
			"timestamp": 1741879324401,
			"receipt": {
				"gasRefunded": 0,
				"gasUsed": 21000,
				"success": true
			}
		},
		{
			"value": "5880000000000000000",
			"blockHash": "ace33cb08743e42a9ac3b6c7801a31ca00ce1c251d79b9ec3b885289e3c66a69",
			"confirmations": 124,
			"data": "",
			"gas": "21000",
			"gasPrice": "5135045370",
			"hash": "62252f5fdeb69d8d3693d87ad1e53435f88a197407b616cee348c1bf0a1628f9",
			"nonce": "0",
			"to": "0xcd15953dD076e56Dc6a5bc46Da23308Ff3158EE6",
			"from": "0x659A76be283644AEc2003aa8ba26485047fd1BFB",
			"senderPublicKey": "0311b11b0dea8851d49af7c673d7032e37ee12307f9bbd379b64bbdac6ca302e84",
			"signature": "0cb2c0d8d73d4ca9d2be751d2db97beb774c81c30ad5de344fe45d925cf1cd4105c6450da06e4e2c1d8170cc7bdbe8bd750b3144c240580a006b45aaabc6642d1c",
			"signatures": null,
			"timestamp": 1741879324401,
			"receipt": {
				"gasRefunded": 0,
				"gasUsed": 21000,
				"success": true
			}
		},
		{
			"value": "5880000000000000000",
			"blockHash": "ace33cb08743e42a9ac3b6c7811a31ca00ce1c250d79b9ec3b885289e3c66a69",
			"confirmations": 124,
			"data": "",
			"gas": "21000",
			"gasPrice": "5135045370",
			"hash": "62252f5fdeb69d8d3693d87ad1e53435f88a198407b615cee348c1bf0a1628f9",
			"nonce": "0",
			"to": "0xcd15953dD076e56Dc6a5bc46Da23308Ff3158EE6",
			"from": "0x659A76be283644AEc2003aa8ba26485047fd1BFB",
			"senderPublicKey": "0311b11b0dea8851d49af7c673d7032e37ee12307f9bbd379b64bbdac6ca302e84",
			"signature": "0cb2c0d8d73d4ca9d2be751d2db97beb774c81c30ad5de344fe45d925cf1cd4105c6450da06e4e2c1d8170cc7bdbe8bd750b3144c240580a006b45aaabc6642d1c",
			"signatures": null,
			"timestamp": 1741879324401,
			"receipt": {
				"gasRefunded": 0,
				"gasUsed": 21000,
				"success": true
			}
		}
	]
}
